…
check for completeness and correctness across datasets (e.g. by viewing
individual datasets and using anti_join);

``` r
anti_join(results, bakes, by = 'baker')
```

    ## # A tibble: 228 × 5
    ##    series episode baker  technical result    
    ##     <dbl>   <dbl> <chr>      <dbl> <chr>     
    ##  1      2       1 Joanne        11 IN        
    ##  2      2       2 Joanne        10 IN        
    ##  3      2       3 Joanne         1 IN        
    ##  4      2       4 Joanne         8 IN        
    ##  5      2       5 Joanne         6 IN        
    ##  6      2       6 Joanne         1 STAR BAKER
    ##  7      2       7 Joanne         3 IN        
    ##  8      2       8 Joanne         1 WINNER    
    ##  9      9       1 Antony        12 IN        
    ## 10      9       1 Briony         2 IN        
    ## # ℹ 218 more rows
…
